; ModuleID = "tests/bullet-in-a-gun.xan"
target triple = "x86_64-unknown-linux-gnu"
target datalayout = ""

define void @"main"(i32 %".1", i8** %".2") 
{
entry:
  %".4" = alloca i32
  store i32 %".1", i32* %".4"
  %".6" = alloca i8**
  store i8** %".2", i8*** %".6"
  %".8" = alloca [1769 x i8]
  store [1769 x i8] [i8 10, i8 84, i8 104, i8 101, i8 32, i8 82, i8 111, i8 109, i8 97, i8 110, i8 32, i8 107, i8 105, i8 110, i8 103, i8 44, i8 32, i8 116, i8 104, i8 101, i8 32, i8 82, i8 111, i8 109, i8 117, i8 108, i8 117, i8 115, i8 10, i8 84, i8 104, i8 101, i8 32, i8 112, i8 114, i8 101, i8 99, i8 105, i8 112, i8 105, i8 99, i8 101, i8 44, i8 32, i8 98, i8 111, i8 114, i8 110, i8 32, i8 116, i8 111, i8 32, i8 99, i8 104, i8 97, i8 110, i8 103, i8 101, i8 10, i8 84, i8 104, i8 101, i8 32, i8 102, i8 105, i8 110, i8 97, i8 108, i8 32, i8 100, i8 97, i8 121, i8 115, i8 44, i8 32, i8 116, i8 104, i8 101, i8 32, i8 108, i8 97, i8 115, i8 116, i8 32, i8 97, i8 112, i8 112, i8 114, i8 97, i8 105, i8 115, i8 101, i8 10, i8 65, i8 117, i8 103, i8 117, i8 115, i8 116, i8 117, i8 115, i8 44, i8 32, i8 78, i8 101, i8 114, i8 111, i8 44, i8 32, i8 116, i8 97, i8 107, i8 105, i8 110, i8 103, i8 32, i8 110, i8 97, i8 109, i8 101, i8 115, i8 10, i8 73, i8 39, i8 109, i8 32, i8 104, i8 105, i8 103, i8 104, i8 44, i8 32, i8 116, i8 104, i8 101, i8 110, i8 32, i8 73, i8 39, i8 109, i8 32, i8 108, i8 111, i8 119, i8 44, i8 32, i8 108, i8 111, i8 119, i8 10, i8 83, i8 116, i8 111, i8 112, i8 44, i8 32, i8 116, i8 104, i8 101, i8 110, i8 32, i8 73, i8 32, i8 103, i8 111, i8 44, i8 32, i8 103, i8 111, i8 10, i8 66, i8 105, i8 112, i8 111, i8 108, i8 97, i8 114, i8 44, i8 32, i8 111, i8 104, i8 44, i8 32, i8 111, i8 104, i8 10, i8 89, i8 101, i8 115, i8 44, i8 32, i8 116, i8 104, i8 101, i8 110, i8 32, i8 73, i8 39, i8 109, i8 32, i8 110, i8 111, i8 44, i8 32, i8 110, i8 111, i8 10, i8 77, i8 121, i8 32, i8 116, i8 105, i8 109, i8 101, i8 32, i8 119, i8 105, i8 108, i8 108, i8 32, i8 99, i8 111, i8 109, i8 101, i8 44, i8 32, i8 73, i8 32, i8 112, i8 114, i8 111, i8 109, i8 105, i8 115, i8 101, i8 32, i8 116, i8 104, i8 97, i8 116, i8 10, i8 80, i8 117, i8 108, i8 108, i8 32, i8 116, i8 104, i8 101, i8 32, i8 116, i8 114, i8 105, i8 103, i8 103, i8 101, i8 114, i8 32, i8 98, i8 97, i8 99, i8 107, i8 44, i8 32, i8 98, i8 97, i8 99, i8 107, i8 10, i8 66, i8 117, i8 108, i8 108, i8 101, i8 116, i8 32, i8 105, i8 110, i8 32, i8 97, i8 32, i8 103, i8 117, i8 110, i8 32, i8 40, i8 104, i8 101, i8 121, i8 41, i8 10, i8 66, i8 117, i8 116, i8 32, i8 105, i8 110, i8 32, i8 116, i8 104, i8 101, i8 32, i8 101, i8 110, i8 100, i8 44, i8 32, i8 109, i8 121, i8 32, i8 116, i8 105, i8 109, i8 101, i8 32, i8 119, i8 105, i8 108, i8 108, i8 32, i8 99, i8 111, i8 109, i8 101, i8 10, i8 76, i8 105, i8 107, i8 101, i8 32, i8 97, i8 32, i8 98, i8 117, i8 108, i8 108, i8 101, i8 116, i8 32, i8 105, i8 110, i8 32, i8 97, i8 32, i8 103, i8 117, i8 110, i8 10, i8 66, i8 108, i8 111, i8 111, i8 100, i8 44, i8 32, i8 115, i8 119, i8 101, i8 97, i8 116, i8 32, i8 97, i8 110, i8 100, i8 32, i8 116, i8 101, i8 97, i8 114, i8 115, i8 32, i8 116, i8 111, i8 32, i8 98, i8 101, i8 32, i8 116, i8 104, i8 101, i8 32, i8 111, i8 110, i8 101, i8 10, i8 66, i8 117, i8 108, i8 108, i8 101, i8 116, i8 32, i8 105, i8 110, i8 32, i8 97, i8 32, i8 103, i8 117, i8 110, i8 32, i8 40, i8 104, i8 101, i8 121, i8 41, i8 44, i8 32, i8 103, i8 117, i8 110, i8 32, i8 40, i8 104, i8 101, i8 121, i8 41, i8 44, i8 32, i8 103, i8 117, i8 110, i8 32, i8 40, i8 104, i8 101, i8 121, i8 41, i8 10, i8 71, i8 117, i8 110, i8 32, i8 40, i8 104, i8 101, i8 121, i8 41, i8 44, i8 32, i8 103, i8 117, i8 110, i8 32, i8 40, i8 104, i8 101, i8 121, i8 41, i8 44, i8 32, i8 103, i8 117, i8 110, i8 32, i8 40, i8 104, i8 101, i8 121, i8 41, i8 44, i8 32, i8 103, i8 117, i8 110, i8 32, i8 40, i8 104, i8 101, i8 121, i8 41, i8 10, i8 66, i8 117, i8 108, i8 108, i8 101, i8 116, i8 32, i8 105, i8 110, i8 32, i8 97, i8 32, i8 103, i8 117, i8 110, i8 32, i8 40, i8 98, i8 117, i8 32, i8 98, i8 117, i8 44, i8 32, i8 104, i8 101, i8 121, i8 41, i8 44, i8 32, i8 103, i8 117, i8 110, i8 32, i8 40, i8 104, i8 101, i8 121, i8 41, i8 44, i8 32, i8 103, i8 117, i8 110, i8 32, i8 40, i8 98, i8 117, i8 32, i8 98, i8 117, i8 44, i8 32, i8 104, i8 101, i8 121, i8 41, i8 10, i8 71, i8 117, i8 110, i8 32, i8 40, i8 104, i8 101, i8 121, i8 41, i8 44, i8 32, i8 103, i8 117, i8 110, i8 32, i8 40, i8 98, i8 117, i8 32, i8 98, i8 117, i8 44, i8 32, i8 104, i8 101, i8 121, i8 41, i8 44, i8 32, i8 103, i8 117, i8 110, i8 32, i8 40, i8 104, i8 101, i8 121, i8 41, i8 44, i8 32, i8 103, i8 117, i8 110, i8 32, i8 40, i8 98, i8 117, i8 32, i8 98, i8 117, i8 44, i8 32, i8 104, i8 101, i8 121, i8 41, i8 10, i8 66, i8 117, i8 108, i8 108, i8 101, i8 116, i8 32, i8 105, i8 110, i8 32, i8 97, i8 32, i8 103, i8 117, i8 110, i8 10, i8 84, i8 111, i8 32, i8 109, i8 97, i8 107, i8 101, i8 32, i8 97, i8 32, i8 110, i8 97, i8 109, i8 101, i8 44, i8 32, i8 121, i8 111, i8 117, i8 32, i8 112, i8 97, i8 121, i8 32, i8 116, i8 104, i8 101, i8 32, i8 112, i8 114, i8 105, i8 99, i8 101, i8 10, i8 89, i8 111, i8 117, i8 32, i8 103, i8 105, i8 118, i8 101, i8 32, i8 121, i8 111, i8 117, i8 114, i8 32, i8 108, i8 105, i8 102, i8 101, i8 44, i8 32, i8 110, i8 111, i8 32, i8 111, i8 116, i8 104, i8 101, i8 114, i8 32, i8 119, i8 97, i8 121, i8 10, i8 84, i8 104, i8 101, i8 32, i8 100, i8 101, i8 118, i8 105, i8 108, i8 39, i8 115, i8 32, i8 100, i8 101, i8 97, i8 108, i8 44, i8 32, i8 105, i8 116, i8 32, i8 99, i8 111, i8 109, i8 101, i8 115, i8 32, i8 97, i8 114, i8 111, i8 117, i8 110, i8 100, i8 10, i8 84, i8 111, i8 32, i8 119, i8 101, i8 97, i8 114, i8 32, i8 116, i8 104, i8 101, i8 32, i8 99, i8 114, i8 111, i8 119, i8 110, i8 44, i8 32, i8 114, i8 105, i8 115, i8 101, i8 32, i8 117, i8 112, i8 32, i8 102, i8 114, i8 111, i8 109, i8 32, i8 116, i8 104, i8 101, i8 32, i8 103, i8 114, i8 111, i8 117, i8 110, i8 100, i8 10, i8 73, i8 39, i8 109, i8 32, i8 104, i8 105, i8 103, i8 104, i8 44, i8 32, i8 116, i8 104, i8 101, i8 110, i8 32, i8 73, i8 39, i8 109, i8 32, i8 108, i8 111, i8 119, i8 44, i8 32, i8 108, i8 111, i8 119, i8 10, i8 83, i8 116, i8 111, i8 112, i8 44, i8 32, i8 116, i8 104, i8 101, i8 110, i8 32, i8 73, i8 32, i8 103, i8 111, i8 44, i8 32, i8 103, i8 111, i8 10, i8 66, i8 105, i8 112, i8 111, i8 108, i8 97, i8 114, i8 44, i8 32, i8 111, i8 104, i8 44, i8 32, i8 111, i8 104, i8 10, i8 89, i8 101, i8 115, i8 44, i8 32, i8 116, i8 104, i8 101, i8 110, i8 32, i8 73, i8 39, i8 109, i8 32, i8 110, i8 111, i8 44, i8 32, i8 110, i8 111, i8 10, i8 77, i8 121, i8 32, i8 116, i8 105, i8 109, i8 101, i8 32, i8 119, i8 105, i8 108, i8 108, i8 32, i8 99, i8 111, i8 109, i8 101, i8 44, i8 32, i8 73, i8 32, i8 112, i8 114, i8 111, i8 109, i8 105, i8 115, i8 101, i8 32, i8 116, i8 104, i8 97, i8 116, i8 10, i8 80, i8 117, i8 108, i8 108, i8 32, i8 116, i8 104, i8 101, i8 32, i8 116, i8 114, i8 105, i8 103, i8 103, i8 101, i8 114, i8 32, i8 98, i8 97, i8 99, i8 107, i8 44, i8 32, i8 98, i8 97, i8 99, i8 107, i8 10, i8 66, i8 117, i8 108, i8 108, i8 101, i8 116, i8 32, i8 105, i8 110, i8 32, i8 97, i8 32, i8 103, i8 117, i8 110, i8 32, i8 40, i8 104, i8 101, i8 121, i8 41, i8 10, i8 66, i8 117, i8 116, i8 32, i8 105, i8 110, i8 32, i8 116, i8 104, i8 101, i8 32, i8 101, i8 110, i8 100, i8 44, i8 32, i8 109, i8 121, i8 32, i8 116, i8 105, i8 109, i8 101, i8 32, i8 119, i8 105, i8 108, i8 108, i8 32, i8 99, i8 111, i8 109, i8 101, i8 10, i8 76, i8 105, i8 107, i8 101, i8 32, i8 97, i8 32, i8 98, i8 117, i8 108, i8 108, i8 101, i8 116, i8 32, i8 105, i8 110, i8 32, i8 97, i8 32, i8 103, i8 117, i8 110, i8 10, i8 66, i8 108, i8 111, i8 111, i8 100, i8 44, i8 32, i8 115, i8 119, i8 101, i8 97, i8 116, i8 32, i8 97, i8 110, i8 100, i8 32, i8 116, i8 101, i8 97, i8 114, i8 115, i8 32, i8 116, i8 111, i8 32, i8 98, i8 101, i8 32, i8 116, i8 104, i8 101, i8 32, i8 111, i8 110, i8 101, i8 10, i8 66, i8 117, i8 108, i8 108, i8 101, i8 116, i8 32, i8 105, i8 110, i8 32, i8 97, i8 32, i8 103, i8 117, i8 110, i8 32, i8 40, i8 104, i8 101, i8 121, i8 41, i8 44, i8 32, i8 103, i8 117, i8 110, i8 32, i8 40, i8 104, i8 101, i8 121, i8 41, i8 44, i8 32, i8 103, i8 117, i8 110, i8 32, i8 40, i8 104, i8 101, i8 121, i8 41, i8 10, i8 71, i8 117, i8 110, i8 32, i8 40, i8 104, i8 101, i8 121, i8 41, i8 44, i8 32, i8 103, i8 117, i8 110, i8 32, i8 40, i8 104, i8 101, i8 121, i8 41, i8 44, i8 32, i8 103, i8 117, i8 110, i8 32, i8 40, i8 104, i8 101, i8 121, i8 41, i8 44, i8 32, i8 103, i8 117, i8 110, i8 32, i8 40, i8 104, i8 101, i8 121, i8 41, i8 10, i8 66, i8 117, i8 108, i8 108, i8 101, i8 116, i8 32, i8 105, i8 110, i8 32, i8 97, i8 32, i8 103, i8 117, i8 110, i8 32, i8 40, i8 98, i8 117, i8 32, i8 98, i8 117, i8 44, i8 32, i8 104, i8 101, i8 121, i8 41, i8 44, i8 32, i8 103, i8 117, i8 110, i8 32, i8 40, i8 104, i8 101, i8 121, i8 41, i8 44, i8 32, i8 103, i8 117, i8 110, i8 32, i8 40, i8 98, i8 117, i8 32, i8 98, i8 117, i8 44, i8 32, i8 104, i8 101, i8 121, i8 41, i8 10, i8 71, i8 117, i8 110, i8 32, i8 40, i8 104, i8 101, i8 121, i8 41, i8 44, i8 32, i8 103, i8 117, i8 110, i8 32, i8 40, i8 98, i8 117, i8 32, i8 98, i8 117, i8 44, i8 32, i8 104, i8 101, i8 121, i8 41, i8 44, i8 32, i8 103, i8 117, i8 110, i8 32, i8 40, i8 104, i8 101, i8 121, i8 41, i8 44, i8 32, i8 103, i8 117, i8 110, i8 32, i8 40, i8 98, i8 117, i8 32, i8 98, i8 117, i8 44, i8 32, i8 104, i8 101, i8 121, i8 41, i8 10, i8 66, i8 117, i8 108, i8 108, i8 101, i8 116, i8 32, i8 105, i8 110, i8 32, i8 97, i8 32, i8 103, i8 117, i8 110, i8 10, i8 72, i8 111, i8 119, i8 32, i8 109, i8 97, i8 110, i8 121, i8 32, i8 118, i8 111, i8 105, i8 99, i8 101, i8 115, i8 32, i8 103, i8 111, i8 32, i8 117, i8 110, i8 104, i8 101, i8 97, i8 114, i8 100, i8 63, i8 10, i8 72, i8 111, i8 119, i8 32, i8 109, i8 97, i8 110, i8 121, i8 32, i8 108, i8 101, i8 115, i8 115, i8 111, i8 110, i8 115, i8 32, i8 110, i8 101, i8 118, i8 101, i8 114, i8 32, i8 108, i8 101, i8 97, i8 114, i8 110, i8 101, i8 100, i8 63, i8 10, i8 72, i8 111, i8 119, i8 32, i8 109, i8 97, i8 110, i8 121, i8 32, i8 97, i8 114, i8 116, i8 105, i8 115, i8 116, i8 115, i8 32, i8 102, i8 101, i8 97, i8 114, i8 32, i8 116, i8 104, i8 101, i8 32, i8 108, i8 105, i8 103, i8 104, i8 116, i8 10, i8 70, i8 101, i8 97, i8 114, i8 32, i8 116, i8 104, i8 101, i8 32, i8 112, i8 97, i8 105, i8 110, i8 44, i8 32, i8 103, i8 111, i8 32, i8 105, i8 110, i8 115, i8 97, i8 110, i8 101, i8 63, i8 10, i8 76, i8 111, i8 115, i8 101, i8 32, i8 116, i8 104, i8 101, i8 32, i8 109, i8 105, i8 110, i8 100, i8 44, i8 32, i8 108, i8 111, i8 115, i8 101, i8 32, i8 116, i8 104, i8 101, i8 32, i8 115, i8 101, i8 108, i8 102, i8 10, i8 40, i8 89, i8 111, i8 117, i8 32, i8 111, i8 110, i8 108, i8 121, i8 32, i8 99, i8 97, i8 114, i8 101, i8 32, i8 97, i8 98, i8 111, i8 117, i8 116, i8 32, i8 102, i8 97, i8 109, i8 101, i8 32, i8 97, i8 110, i8 100, i8 32, i8 119, i8 101, i8 97, i8 108, i8 116, i8 104, i8 41, i8 10, i8 83, i8 101, i8 108, i8 108, i8 111, i8 117, i8 116, i8 44, i8 32, i8 115, i8 101, i8 108, i8 108, i8 111, i8 117, i8 116, i8 44, i8 32, i8 115, i8 101, i8 108, i8 108, i8 111, i8 117, i8 116, i8 10, i8 66, i8 117, i8 108, i8 108, i8 101, i8 116, i8 32, i8 105, i8 110, i8 32, i8 97, i8 32, i8 103, i8 117, i8 110, i8 32, i8 40, i8 104, i8 101, i8 121, i8 41, i8 10, i8 66, i8 117, i8 116, i8 32, i8 105, i8 110, i8 32, i8 116, i8 104, i8 101, i8 32, i8 101, i8 110, i8 100, i8 44, i8 32, i8 109, i8 121, i8 32, i8 116, i8 105, i8 109, i8 101, i8 32, i8 119, i8 105, i8 108, i8 108, i8 32, i8 99, i8 111, i8 109, i8 101, i8 10, i8 76, i8 105, i8 107, i8 101, i8 32, i8 97, i8 32, i8 98, i8 117, i8 108, i8 108, i8 101, i8 116, i8 32, i8 105, i8 110, i8 32, i8 97, i8 32, i8 103, i8 117, i8 110, i8 10, i8 66, i8 108, i8 111, i8 111, i8 100, i8 44, i8 32, i8 115, i8 119, i8 101, i8 97, i8 116, i8 32, i8 97, i8 110, i8 100, i8 32, i8 116, i8 101, i8 97, i8 114, i8 115, i8 32, i8 116, i8 111, i8 32, i8 98, i8 101, i8 32, i8 116, i8 104, i8 101, i8 32, i8 111, i8 110, i8 101, i8 10, i8 66, i8 117, i8 108, i8 108, i8 101, i8 116, i8 32, i8 105, i8 110, i8 32, i8 97, i8 32, i8 103, i8 117, i8 110, i8 32, i8 40, i8 104, i8 101, i8 121, i8 41, i8 44, i8 32, i8 103, i8 117, i8 110, i8 32, i8 40, i8 104, i8 101, i8 121, i8 41, i8 44, i8 32, i8 103, i8 117, i8 110, i8 32, i8 40, i8 104, i8 101, i8 121, i8 41, i8 10, i8 71, i8 117, i8 110, i8 32, i8 40, i8 104, i8 101, i8 121, i8 41, i8 44, i8 32, i8 103, i8 117, i8 110, i8 32, i8 40, i8 104, i8 101, i8 121, i8 41, i8 44, i8 32, i8 103, i8 117, i8 110, i8 32, i8 40, i8 104, i8 101, i8 121, i8 41, i8 44, i8 32, i8 103, i8 117, i8 110, i8 32, i8 40, i8 104, i8 101, i8 121, i8 41, i8 10, i8 66, i8 117, i8 108, i8 108, i8 101, i8 116, i8 32, i8 105, i8 110, i8 32, i8 97, i8 32, i8 103, i8 117, i8 110, i8 32, i8 40, i8 98, i8 117, i8 32, i8 98, i8 117, i8 44, i8 32, i8 104, i8 101, i8 121, i8 41, i8 44, i8 32, i8 103, i8 117, i8 110, i8 32, i8 40, i8 104, i8 101, i8 121, i8 41, i8 44, i8 32, i8 103, i8 117, i8 110, i8 32, i8 40, i8 98, i8 117, i8 32, i8 98, i8 117, i8 44, i8 32, i8 104, i8 101, i8 121, i8 41, i8 10, i8 71, i8 117, i8 110, i8 32, i8 40, i8 104, i8 101, i8 121, i8 41, i8 44, i8 32, i8 103, i8 117, i8 110, i8 32, i8 40, i8 98, i8 117, i8 32, i8 98, i8 117, i8 44, i8 32, i8 104, i8 101, i8 121, i8 41, i8 44, i8 32, i8 103, i8 117, i8 110, i8 32, i8 40, i8 104, i8 101, i8 121, i8 41, i8 44, i8 32, i8 103, i8 117, i8 110, i8 32, i8 40, i8 98, i8 117, i8 32, i8 98, i8 117, i8 44, i8 32, i8 104, i8 101, i8 121, i8 41, i8 10, i8 66, i8 117, i8 108, i8 108, i8 101, i8 116, i8 32, i8 105, i8 110, i8 32, i8 97, i8 0], [1769 x i8]* %".8"
  %".10" = getelementptr [1769 x i8], [1769 x i8]* %".8", i32 0
  %".11" = getelementptr [1769 x i8], [1769 x i8]* %".10", i32 0
  %".12" = bitcast [1769 x i8]* %".11" to i8*
  %".13" = call i32 (i8*, ...) @"printf"(i8* %".12")
  ret void
}

declare i32 @"printf"(i8* %".1", ...) 

!gen-by = !{ !0 }
!0 = !{ !"Xanathar" }